ApplicationMgr    SUCCESS
====================================================================================================================================
====================================================================================================================================
ApplicationMgr       INFO Application Manager Configured successfully
BooleSequencer       INFO Member list: ProcessPhase/Init, ProcessPhase/Digi, ProcessPhase/Link, ProcessPhase/Moni, ProcessPhase/Filter
RndmGenSvc.Engine    INFO Generator engine type:CLHEP::RanluxEngine
RndmGenSvc.Engine    INFO Current Seed:1234567 Luxury:3
RndmGenSvc           INFO Using Random engine:HepRndm::Engine<CLHEP::RanluxEngine>
Init                 INFO Member list: GaudiSequencer/InitBooleSeq, GaudiSequencer/InitDataSeq
InitBooleSeq         INFO Member list: BooleInit, LHCb::Det::LbDD4hep::IOVProducer/ReserveIOVDD4hep, GaudiSequencer/SpilloverHandler
BooleInit         SUCCESS ==================================================================
BooleInit         SUCCESS Requested to process 10 events
BooleInit         SUCCESS ==================================================================
LHCb::Det::LbDD...   INFO Field map location: DBASE/FieldMap/vXrYpZ/cdf
HistogramPersis...   INFO Added successfully Conversion service:RootHistSvc
SpilloverHandler     INFO Member list: TESCheck/SpilloverLoader, EventNodeKiller/SpilloverKiller
InitDataSeq          INFO Member list:
Digi                 INFO Member list: GaudiSequencer/DigiCaloSeq
DigiCaloSeq          INFO Member list: CaloSignalAlg/EcalSignal, CaloSignalAlg/HcalSignal, CaloDigitAlg/EcalDigit, CaloDigitAlg/HcalDigit, CaloFutureFillRawBuffer/EcalFillRawBuffer, CaloFutureFillRawBuffer/HcalFillRawBuffer
EcalSignal           INFO Initialised.
HcalSignal           INFO Initialised.
EcalDigit            INFO ----- Digitization parameters (from CaloDigitAlg configuration) ------------------
EcalDigit            INFO Additional  0.0% of the cells as dead (gain=0).
EcalDigit            INFO Additional gain error  1.0%
HcalDigit            INFO ----- Digitization parameters (from CaloDigitAlg configuration) ------------------
HcalDigit            INFO Additional  0.0% of the cells as dead (gain=0).
HcalDigit            INFO Additional gain error  1.0%
Link                 INFO Member list: GaudiSequencer/LinkCaloSeq
LinkCaloSeq          INFO Member list: LHCb::UnpackRawEvent/UnpackRawEventCalo, LHCb::UnpackRawEvent/UnpackRawEventCaloError, CaloFutureRawToDigits/FutureEcalZSup, CaloFutureRawToDigits/FutureHcalZSup, CaloDigitLinker/FutureEcalDigitLinker, CaloDigitLinker/FutureHcalDigitLinker
Moni                 INFO Member list: GaudiSequencer/MoniCaloSeq
MoniCaloSeq          INFO Member list: CaloDigitChecker/EcalCheck, CaloDigitChecker/HcalCheck
EcalCheck            INFO Monitoring Hits MC/Ecal/Hits   MC Digit   MC/Ecal/Digits   Digit   Raw/Ecal/Digits, Histograms booked
HcalCheck            INFO Monitoring Hits MC/Hcal/Hits   MC Digit   MC/Hcal/Digits   Digit   Raw/Hcal/Digits, Histograms booked
Filter               INFO OR Member list:
PrepareDIGI          INFO Member list: PackMCVertex, PackMCParticle
FileRecordPersi...   INFO Added successfully Conversion service:FileRecordCnvSvc
FSROutputStream...   INFO Data source: FileRecordDataSvc output: DATAFILE='PFN:Boole-Calo-10ev.digi' SVC='FileRecordCnvSvc' OPT='REC'
EventPersistenc...   INFO Added successfully Conversion service:RootCnvSvc
DigiWriter           INFO Data source: EventDataSvc output: DATAFILE='PFN:Boole-Calo-10ev.digi' SVC='RootCnvSvc' OPT='REC'
KillVPBanks       SUCCESS bankKiller : all banks of type 'VP' will be removed.
EventPersistenc...   INFO Added successfully Conversion service:LHCb::RawDataCnvSvc
RawWriter            INFO Data source: EventDataSvc output: DATAFILE='PFN:Boole-Calo-10ev.mdf' SVC='LHCb::RawDataCnvSvc' OPT='REC'
ApplicationMgr       INFO Application Manager Initialized successfully
LHCb::RawDataCn...   INFO Opened(NEW)  MDF stream:PFN:Boole-Calo-10ev.mdf ID:0x########
ApplicationMgr       INFO Application Manager Started successfully
BooleInit            INFO Evt 2951,  Run 16564960,  Nr. in job = 1
HcalDigit            INFO ----- Detector parameters (from condDB) ------------------
HcalDigit            INFO Nominal gain parameters for    Outer region :  30000.0 +   0.0 x sin(theta)
HcalDigit            INFO Nominal gain parameters for    Inner region :  30000.0 +   0.0 x sin(theta)
HcalDigit            INFO Noise          :   1.2 +   0.3 (coherent) counts.
HcalDigit            INFO Pedestal shift :  0.40 counts
HcalDigit            INFO Actual dynamics saturation :   0.95 x ADCMax
DeMagnetConditi...   INFO Loading mag field from DBASE/FieldMap/vXrYpZ/cdf
MagneticFieldEx...   INFO Scale factor: 0.999983
EcalDigit            INFO ----- Detector parameters (from condDB) ------------------
EcalDigit            INFO Nominal gain parameters for    Outer region :  20000.0 + 14000.0 x sin(theta)
EcalDigit            INFO Nominal gain parameters for   Middle region :  20000.0 + 14000.0 x sin(theta)
EcalDigit            INFO Nominal gain parameters for    Inner region :  20000.0 + 14000.0 x sin(theta)
EcalDigit            INFO Noise          :   1.2 +   0.3 (coherent) counts.
EcalDigit            INFO Pedestal shift :  0.40 counts
EcalDigit            INFO Actual dynamics saturation :   0.95 x ADCMax
BooleInit            INFO Evt 2952,  Run 16564960,  Nr. in job = 2
BooleInit            INFO Evt 2953,  Run 16564960,  Nr. in job = 3
BooleInit            INFO Evt 2954,  Run 16564960,  Nr. in job = 4
BooleInit            INFO Evt 2955,  Run 16564960,  Nr. in job = 5
BooleInit            INFO Evt 2956,  Run 16564960,  Nr. in job = 6
BooleInit            INFO Evt 2957,  Run 16564960,  Nr. in job = 7
BooleInit            INFO Evt 2958,  Run 16564960,  Nr. in job = 8
BooleInit            INFO Evt 2959,  Run 16564960,  Nr. in job = 9
BooleInit            INFO Evt 2960,  Run 16564960,  Nr. in job = 10
ApplicationMgr       INFO Application Manager Stopped successfully
BooleInit         SUCCESS ==================================================================
BooleInit         SUCCESS 10 events processed
BooleInit         SUCCESS ==================================================================
FSROutputStream...   INFO Set up File Summary Record
FSROutputStream...   INFO Events output: 1
DigiWriter           INFO Events output: 10
RawWriter            INFO Events output: 10
EventLoopMgr         INFO Histograms converted successfully according to request.
LHCb::RawDataCn...   INFO Closed connected MDF stream:PFN:Boole-Calo-10ev.mdf ID:0x########
HistogramPersis...   INFO Histograms Converted/Excluded: 0/12
ApplicationMgr       INFO Application Manager Finalized successfully
ApplicationMgr       INFO Application Manager Terminated successfully
BooleInit.Boole...   INFO Number of counters : 2
 |    Counter                                      |     #     |    sum     | mean/eff^* | rms/err^*  |     min     |     max     |
FutureEcalDigit...   INFO Number of counters : 1
 |    Counter                                      |     #     |    sum     | mean/eff^* | rms/err^*  |     min     |     max     |
 | "Number of MC-links #"                          |        10 |     138047 |    13805.0 |     5806.7 |      3465.0 |     22508.0 |
FutureHcalDigit...   INFO Number of counters : 1
 |    Counter                                      |     #     |    sum     | mean/eff^* | rms/err^*  |     min     |     max     |
 | "Number of MC-links #"                          |        10 |      27945 |     2794.5 |     855.67 |      1038.0 |      3664.0 |
KillVPBanks          INFO Number of counters : 1
 |    Counter                                      |     #     |    sum     | mean/eff^* | rms/err^*  |     min     |     max     |
 | "Requested banks are empty"                     |        10 |
UnpackMCEcalHits     INFO Number of counters : 1
 |    Counter                                      |     #     |    sum     | mean/eff^* | rms/err^*  |     min     |     max     |
 | "# UnPackedData"                                |        10 |     118228 |    11823.0 |     3835.2 |      4821.0 |     16738.0 |
UnpackMCHcalHits     INFO Number of counters : 1
 |    Counter                                      |     #     |    sum     | mean/eff^* | rms/err^*  |     min     |     max     |
 | "# UnPackedData"                                |        10 |      19624 |     1962.4 |     592.00 |      797.00 |      2620.0 |
